-- Merging decision tree log ---
manifest
<<<<<<< HEAD
ADDED from AndroidManifest.xml:2:1
	package
		ADDED from AndroidManifest.xml:3:5
		INJECTED from AndroidManifest.xml:0:0
		INJECTED from AndroidManifest.xml:0:0
	android:versionName
		INJECTED from AndroidManifest.xml:0:0
		INJECTED from AndroidManifest.xml:0:0
	xmlns:android
		ADDED from AndroidManifest.xml:2:11
	android:versionCode
		INJECTED from AndroidManifest.xml:0:0
		INJECTED from AndroidManifest.xml:0:0
uses-permission#android.permission.INTERNET
ADDED from AndroidManifest.xml:5:5
	android:name
		ADDED from AndroidManifest.xml:5:22
uses-permission#android.permission.ACCESS_NETWORK_STATE
ADDED from AndroidManifest.xml:6:5
	android:name
		ADDED from AndroidManifest.xml:6:22
application
ADDED from AndroidManifest.xml:8:5
MERGED from com.android.support:appcompat-v7:21.0.3:16:5
MERGED from com.android.support:support-v4:21.0.3:16:5
MERGED from com.google.android.gms:play-services:6.5.87:20:5
MERGED from com.android.support:support-v4:21.0.3:16:5
	android:label
		ADDED from AndroidManifest.xml:11:9
	android:allowBackup
		ADDED from AndroidManifest.xml:9:9
	android:icon
		ADDED from AndroidManifest.xml:10:9
	android:largeHeap
		ADDED from AndroidManifest.xml:12:9
	android:theme
		ADDED from AndroidManifest.xml:13:9
activity#com.sha.netstager.pandafoods.activity.StartActivity
ADDED from AndroidManifest.xml:14:9
	android:screenOrientation
		ADDED from AndroidManifest.xml:17:13
	android:label
		ADDED from AndroidManifest.xml:16:13
	android:name
		ADDED from AndroidManifest.xml:15:13
intent-filter#android.intent.action.MAIN+android.intent.category.LAUNCHER
ADDED from AndroidManifest.xml:18:13
action#android.intent.action.MAIN
ADDED from AndroidManifest.xml:19:17
	android:name
		ADDED from AndroidManifest.xml:19:25
category#android.intent.category.LAUNCHER
ADDED from AndroidManifest.xml:21:17
	android:name
		ADDED from AndroidManifest.xml:21:27
activity#com.sha.netstager.pandafoods.activity.LoginActivity
ADDED from AndroidManifest.xml:24:9
	android:screenOrientation
		ADDED from AndroidManifest.xml:27:13
	android:label
		ADDED from AndroidManifest.xml:26:13
	android:windowSoftInputMode
		ADDED from AndroidManifest.xml:28:13
	android:name
		ADDED from AndroidManifest.xml:25:13
activity#com.sha.netstager.pandafoods.activity.SignUpActivity
ADDED from AndroidManifest.xml:29:9
	android:screenOrientation
		ADDED from AndroidManifest.xml:32:13
	android:label
		ADDED from AndroidManifest.xml:31:13
	android:name
		ADDED from AndroidManifest.xml:30:13
activity#com.sha.netstager.pandafoods.activity.HomeActivity
ADDED from AndroidManifest.xml:33:9
	android:screenOrientation
		ADDED from AndroidManifest.xml:36:13
	android:label
		ADDED from AndroidManifest.xml:35:13
	android:theme
		ADDED from AndroidManifest.xml:37:13
	android:name
		ADDED from AndroidManifest.xml:34:13
activity#com.sha.netstager.pandafoods.activity.ProductCatagoryActivity
ADDED from AndroidManifest.xml:38:9
	android:screenOrientation
		ADDED from AndroidManifest.xml:41:13
	android:parentActivityName
		ADDED from AndroidManifest.xml:40:13
	android:name
		ADDED from AndroidManifest.xml:39:13
meta-data#android.support.PARENT_ACTIVITY
ADDED from AndroidManifest.xml:42:13
	android:value
		ADDED from AndroidManifest.xml:44:17
	android:name
		ADDED from AndroidManifest.xml:43:17
activity#com.sha.netstager.pandafoods.activity.RecentOrderActivity
ADDED from AndroidManifest.xml:46:9
	android:screenOrientation
		ADDED from AndroidManifest.xml:49:13
	android:parentActivityName
		ADDED from AndroidManifest.xml:48:13
	android:name
		ADDED from AndroidManifest.xml:47:13
activity#com.sha.netstager.pandafoods.activity.AddCustomerActivity
ADDED from AndroidManifest.xml:54:9
	android:screenOrientation
		ADDED from AndroidManifest.xml:57:13
	android:parentActivityName
		ADDED from AndroidManifest.xml:56:13
	android:name
		ADDED from AndroidManifest.xml:55:13
activity#com.sha.netstager.pandafoods.activity.SettingsActivity
ADDED from AndroidManifest.xml:62:9
	android:screenOrientation
		ADDED from AndroidManifest.xml:65:13
	android:parentActivityName
		ADDED from AndroidManifest.xml:64:13
	android:name
		ADDED from AndroidManifest.xml:63:13
activity#com.sha.netstager.pandafoods.activity.ConfirmSignUpActivity
ADDED from AndroidManifest.xml:70:9
	android:screenOrientation
		ADDED from AndroidManifest.xml:73:13
	android:label
		ADDED from AndroidManifest.xml:72:13
	android:name
		ADDED from AndroidManifest.xml:71:13
activity#com.sha.netstager.pandafoods.activity.ProductMainActivity
ADDED from AndroidManifest.xml:74:9
	android:screenOrientation
		ADDED from AndroidManifest.xml:78:13
	android:label
		ADDED from AndroidManifest.xml:76:13
	android:parentActivityName
		ADDED from AndroidManifest.xml:77:13
	android:name
		ADDED from AndroidManifest.xml:75:13
activity#com.sha.netstager.pandafoods.activity.CartShowActivity
ADDED from AndroidManifest.xml:83:9
	android:screenOrientation
		ADDED from AndroidManifest.xml:87:13
	android:label
		ADDED from AndroidManifest.xml:85:13
	android:parentActivityName
		ADDED from AndroidManifest.xml:86:13
	android:name
		ADDED from AndroidManifest.xml:84:13
activity#com.sha.netstager.pandafoods.activity.OrderProductsActivity
ADDED from AndroidManifest.xml:92:9
	android:screenOrientation
		ADDED from AndroidManifest.xml:96:13
	android:label
		ADDED from AndroidManifest.xml:94:13
	android:parentActivityName
		ADDED from AndroidManifest.xml:95:13
	android:name
		ADDED from AndroidManifest.xml:93:13
activity#com.sha.netstager.pandafoods.activity.ProductDetailsActivity
ADDED from AndroidManifest.xml:101:9
	android:screenOrientation
		ADDED from AndroidManifest.xml:104:13
	android:parentActivityName
		ADDED from AndroidManifest.xml:103:13
	android:name
		ADDED from AndroidManifest.xml:102:13
activity#com.sha.netstager.pandafoods.activity.OrderedProductShowActivity
ADDED from AndroidManifest.xml:109:9
	android:screenOrientation
		ADDED from AndroidManifest.xml:113:13
	android:label
		ADDED from AndroidManifest.xml:111:13
	android:parentActivityName
		ADDED from AndroidManifest.xml:112:13
	android:name
		ADDED from AndroidManifest.xml:110:13
activity#com.sha.netstager.pandafoods.activity.SetCustomerActivity
ADDED from AndroidManifest.xml:118:9
	android:screenOrientation
		ADDED from AndroidManifest.xml:122:13
	android:label
		ADDED from AndroidManifest.xml:120:13
	android:parentActivityName
		ADDED from AndroidManifest.xml:121:13
	android:name
		ADDED from AndroidManifest.xml:119:13
activity#com.sha.netstager.pandafoods.activity.OfferViewActivity
ADDED from AndroidManifest.xml:127:9
	android:screenOrientation
		ADDED from AndroidManifest.xml:131:13
	android:label
		ADDED from AndroidManifest.xml:129:13
	android:parentActivityName
		ADDED from AndroidManifest.xml:130:13
	android:name
		ADDED from AndroidManifest.xml:128:13
activity#com.sha.netstager.pandafoods.activity.SubCatagoryActivity
ADDED from AndroidManifest.xml:136:9
	android:screenOrientation
		ADDED from AndroidManifest.xml:140:13
	android:label
		ADDED from AndroidManifest.xml:138:13
	android:parentActivityName
		ADDED from AndroidManifest.xml:139:13
	android:name
		ADDED from AndroidManifest.xml:137:13
activity#com.sha.netstager.pandafoods.activity.Grid_Home_Activity
ADDED from AndroidManifest.xml:145:9
	android:label
		ADDED from AndroidManifest.xml:147:13
	android:theme
		ADDED from AndroidManifest.xml:148:13
	android:name
		ADDED from AndroidManifest.xml:146:13
activity#com.sha.netstager.pandafoods.activity.LoginAuthActivity
ADDED from AndroidManifest.xml:150:9
	android:label
		ADDED from AndroidManifest.xml:152:13
	android:theme
		ADDED from AndroidManifest.xml:153:13
	android:name
		ADDED from AndroidManifest.xml:151:13
service#com.sha.netstager.pandafoods.services.SyncService
ADDED from AndroidManifest.xml:157:9
	android:enabled
		ADDED from AndroidManifest.xml:159:13
	android:exported
		ADDED from AndroidManifest.xml:160:13
	android:name
		ADDED from AndroidManifest.xml:158:13
service#com.sha.netstager.pandafoods.services.OrderService
ADDED from AndroidManifest.xml:161:9
	android:enabled
		ADDED from AndroidManifest.xml:163:13
	android:exported
		ADDED from AndroidManifest.xml:164:13
	android:name
		ADDED from AndroidManifest.xml:162:13
service#com.sha.netstager.pandafoods.services.SyncCustomerService
ADDED from AndroidManifest.xml:165:9
	android:enabled
		ADDED from AndroidManifest.xml:167:13
	android:exported
		ADDED from AndroidManifest.xml:168:13
	android:name
		ADDED from AndroidManifest.xml:166:13
provider#com.sha.netstager.pandafoods.contentProvider.LocalDbProvider
ADDED from AndroidManifest.xml:171:9
	android:authorities
		ADDED from AndroidManifest.xml:173:13
	android:enabled
		ADDED from AndroidManifest.xml:174:13
	android:exported
		ADDED from AndroidManifest.xml:175:13
	android:name
		ADDED from AndroidManifest.xml:172:13
activity#com.sha.netstager.pandafoods.activity.CartActionBar
ADDED from AndroidManifest.xml:177:9
	android:label
		ADDED from AndroidManifest.xml:179:13
	android:name
		ADDED from AndroidManifest.xml:178:13
activity#com.sha.netstager.pandafoods.activity.OrderComplteApi
ADDED from AndroidManifest.xml:181:9
	android:label
		ADDED from AndroidManifest.xml:183:13
	android:name
		ADDED from AndroidManifest.xml:182:13
uses-sdk
INJECTED from AndroidManifest.xml:0:0 reason: use-sdk injection requested
MERGED from com.android.support:appcompat-v7:21.0.3:15:5
MERGED from com.android.support:support-v4:21.0.3:15:5
MERGED from com.google.android.gms:play-services:6.5.87:18:5
MERGED from com.android.support:support-v4:21.0.3:15:5
	android:targetSdkVersion
		INJECTED from AndroidManifest.xml:0:0
		INJECTED from AndroidManifest.xml:0:0
	android:minSdkVersion
		INJECTED from AndroidManifest.xml:0:0
		INJECTED from AndroidManifest.xml:0:0
meta-data#com.google.android.gms.version
ADDED from com.google.android.gms:play-services:6.5.87:21:9
	android:value
		ADDED from com.google.android.gms:play-services:6.5.87:23:13
	android:name
		ADDED from com.google.android.gms:play-services:6.5.87:22:13
=======
ADDED from /Users/user/Documents/Projects_bsr/Android/2015/panda_new/src/main/AndroidManifest.xml:2:1-191:12
	package
		ADDED from /Users/user/Documents/Projects_bsr/Android/2015/panda_new/src/main/AndroidManifest.xml:3:5-43
		INJECTED from /Users/user/Documents/Projects_bsr/Android/2015/panda_new/src/main/AndroidManifest.xml
		INJECTED from /Users/user/Documents/Projects_bsr/Android/2015/panda_new/src/main/AndroidManifest.xml
	android:versionName
		INJECTED from /Users/user/Documents/Projects_bsr/Android/2015/panda_new/src/main/AndroidManifest.xml
		INJECTED from /Users/user/Documents/Projects_bsr/Android/2015/panda_new/src/main/AndroidManifest.xml
	xmlns:android
		ADDED from /Users/user/Documents/Projects_bsr/Android/2015/panda_new/src/main/AndroidManifest.xml:2:11-69
	android:versionCode
		INJECTED from /Users/user/Documents/Projects_bsr/Android/2015/panda_new/src/main/AndroidManifest.xml
		INJECTED from /Users/user/Documents/Projects_bsr/Android/2015/panda_new/src/main/AndroidManifest.xml
uses-permission#android.permission.INTERNET
ADDED from /Users/user/Documents/Projects_bsr/Android/2015/panda_new/src/main/AndroidManifest.xml:5:5-67
	android:name
		ADDED from /Users/user/Documents/Projects_bsr/Android/2015/panda_new/src/main/AndroidManifest.xml:5:22-64
uses-permission#android.permission.ACCESS_NETWORK_STATE
ADDED from /Users/user/Documents/Projects_bsr/Android/2015/panda_new/src/main/AndroidManifest.xml:6:5-79
	android:name
		ADDED from /Users/user/Documents/Projects_bsr/Android/2015/panda_new/src/main/AndroidManifest.xml:6:22-76
application
ADDED from /Users/user/Documents/Projects_bsr/Android/2015/panda_new/src/main/AndroidManifest.xml:8:5-189:19
MERGED from [com.android.support:appcompat-v7:21.0.3] /Users/user/Documents/Projects_bsr/Android/2015/panda_new/build/intermediates/exploded-aar/com.android.support/appcompat-v7/21.0.3/AndroidManifest.xml:16:5-19
MERGED from [com.android.support:support-v4:21.0.3] /Users/user/Documents/Projects_bsr/Android/2015/panda_new/build/intermediates/exploded-aar/com.android.support/support-v4/21.0.3/AndroidManifest.xml:16:5-19
MERGED from [com.google.android.gms:play-services:6.5.87] /Users/user/Documents/Projects_bsr/Android/2015/panda_new/build/intermediates/exploded-aar/com.google.android.gms/play-services/6.5.87/AndroidManifest.xml:20:5-24:19
MERGED from [com.android.support:support-v4:21.0.3] /Users/user/Documents/Projects_bsr/Android/2015/panda_new/build/intermediates/exploded-aar/com.android.support/support-v4/21.0.3/AndroidManifest.xml:16:5-19
	android:label
		ADDED from /Users/user/Documents/Projects_bsr/Android/2015/panda_new/src/main/AndroidManifest.xml:11:9-41
	android:allowBackup
		ADDED from /Users/user/Documents/Projects_bsr/Android/2015/panda_new/src/main/AndroidManifest.xml:9:9-35
	android:icon
		ADDED from /Users/user/Documents/Projects_bsr/Android/2015/panda_new/src/main/AndroidManifest.xml:10:9-45
	android:largeHeap
		ADDED from /Users/user/Documents/Projects_bsr/Android/2015/panda_new/src/main/AndroidManifest.xml:12:9-33
	android:theme
		ADDED from /Users/user/Documents/Projects_bsr/Android/2015/panda_new/src/main/AndroidManifest.xml:13:9-40
activity#com.sha.netstager.pandafoods.activity.StartActivity
ADDED from /Users/user/Documents/Projects_bsr/Android/2015/panda_new/src/main/AndroidManifest.xml:14:9-23:20
	android:screenOrientation
		ADDED from /Users/user/Documents/Projects_bsr/Android/2015/panda_new/src/main/AndroidManifest.xml:17:13-49
	android:label
		ADDED from /Users/user/Documents/Projects_bsr/Android/2015/panda_new/src/main/AndroidManifest.xml:16:13-57
	android:name
		ADDED from /Users/user/Documents/Projects_bsr/Android/2015/panda_new/src/main/AndroidManifest.xml:15:13-51
intent-filter#android.intent.action.MAIN+android.intent.category.LAUNCHER
ADDED from /Users/user/Documents/Projects_bsr/Android/2015/panda_new/src/main/AndroidManifest.xml:18:13-22:29
action#android.intent.action.MAIN
ADDED from /Users/user/Documents/Projects_bsr/Android/2015/panda_new/src/main/AndroidManifest.xml:19:17-69
	android:name
		ADDED from /Users/user/Documents/Projects_bsr/Android/2015/panda_new/src/main/AndroidManifest.xml:19:25-66
category#android.intent.category.LAUNCHER
ADDED from /Users/user/Documents/Projects_bsr/Android/2015/panda_new/src/main/AndroidManifest.xml:21:17-77
	android:name
		ADDED from /Users/user/Documents/Projects_bsr/Android/2015/panda_new/src/main/AndroidManifest.xml:21:27-74
activity#com.sha.netstager.pandafoods.activity.LoginActivity
ADDED from /Users/user/Documents/Projects_bsr/Android/2015/panda_new/src/main/AndroidManifest.xml:24:9-28:70
	android:screenOrientation
		ADDED from /Users/user/Documents/Projects_bsr/Android/2015/panda_new/src/main/AndroidManifest.xml:27:13-49
	android:label
		ADDED from /Users/user/Documents/Projects_bsr/Android/2015/panda_new/src/main/AndroidManifest.xml:26:13-57
	android:windowSoftInputMode
		ADDED from /Users/user/Documents/Projects_bsr/Android/2015/panda_new/src/main/AndroidManifest.xml:28:13-67
	android:name
		ADDED from /Users/user/Documents/Projects_bsr/Android/2015/panda_new/src/main/AndroidManifest.xml:25:13-51
activity#com.sha.netstager.pandafoods.activity.SignUpActivity
ADDED from /Users/user/Documents/Projects_bsr/Android/2015/panda_new/src/main/AndroidManifest.xml:29:9-32:52
	android:screenOrientation
		ADDED from /Users/user/Documents/Projects_bsr/Android/2015/panda_new/src/main/AndroidManifest.xml:32:13-49
	android:label
		ADDED from /Users/user/Documents/Projects_bsr/Android/2015/panda_new/src/main/AndroidManifest.xml:31:13-59
	android:name
		ADDED from /Users/user/Documents/Projects_bsr/Android/2015/panda_new/src/main/AndroidManifest.xml:30:13-52
activity#com.sha.netstager.pandafoods.activity.HomeActivity
ADDED from /Users/user/Documents/Projects_bsr/Android/2015/panda_new/src/main/AndroidManifest.xml:33:9-37:47
	android:screenOrientation
		ADDED from /Users/user/Documents/Projects_bsr/Android/2015/panda_new/src/main/AndroidManifest.xml:36:13-49
	android:label
		ADDED from /Users/user/Documents/Projects_bsr/Android/2015/panda_new/src/main/AndroidManifest.xml:35:13-56
	android:theme
		ADDED from /Users/user/Documents/Projects_bsr/Android/2015/panda_new/src/main/AndroidManifest.xml:37:13-44
	android:name
		ADDED from /Users/user/Documents/Projects_bsr/Android/2015/panda_new/src/main/AndroidManifest.xml:34:13-50
activity#com.sha.netstager.pandafoods.activity.ProductCatagoryActivity
ADDED from /Users/user/Documents/Projects_bsr/Android/2015/panda_new/src/main/AndroidManifest.xml:38:9-45:20
	android:screenOrientation
		ADDED from /Users/user/Documents/Projects_bsr/Android/2015/panda_new/src/main/AndroidManifest.xml:41:13-49
	android:parentActivityName
		ADDED from /Users/user/Documents/Projects_bsr/Android/2015/panda_new/src/main/AndroidManifest.xml:40:13-64
	android:name
		ADDED from /Users/user/Documents/Projects_bsr/Android/2015/panda_new/src/main/AndroidManifest.xml:39:13-61
meta-data#android.support.PARENT_ACTIVITY
ADDED from /Users/user/Documents/Projects_bsr/Android/2015/panda_new/src/main/AndroidManifest.xml:42:13-44:58
	android:value
		ADDED from /Users/user/Documents/Projects_bsr/Android/2015/panda_new/src/main/AndroidManifest.xml:44:17-55
	android:name
		ADDED from /Users/user/Documents/Projects_bsr/Android/2015/panda_new/src/main/AndroidManifest.xml:43:17-63
activity#com.sha.netstager.pandafoods.activity.RecentOrderActivity
ADDED from /Users/user/Documents/Projects_bsr/Android/2015/panda_new/src/main/AndroidManifest.xml:46:9-53:20
	android:screenOrientation
		ADDED from /Users/user/Documents/Projects_bsr/Android/2015/panda_new/src/main/AndroidManifest.xml:49:13-49
	android:parentActivityName
		ADDED from /Users/user/Documents/Projects_bsr/Android/2015/panda_new/src/main/AndroidManifest.xml:48:13-64
	android:name
		ADDED from /Users/user/Documents/Projects_bsr/Android/2015/panda_new/src/main/AndroidManifest.xml:47:13-57
activity#com.sha.netstager.pandafoods.activity.AddCustomerActivity
ADDED from /Users/user/Documents/Projects_bsr/Android/2015/panda_new/src/main/AndroidManifest.xml:54:9-61:20
	android:screenOrientation
		ADDED from /Users/user/Documents/Projects_bsr/Android/2015/panda_new/src/main/AndroidManifest.xml:57:13-49
	android:parentActivityName
		ADDED from /Users/user/Documents/Projects_bsr/Android/2015/panda_new/src/main/AndroidManifest.xml:56:13-64
	android:name
		ADDED from /Users/user/Documents/Projects_bsr/Android/2015/panda_new/src/main/AndroidManifest.xml:55:13-57
activity#com.sha.netstager.pandafoods.activity.SettingsActivity
ADDED from /Users/user/Documents/Projects_bsr/Android/2015/panda_new/src/main/AndroidManifest.xml:62:9-69:20
	android:screenOrientation
		ADDED from /Users/user/Documents/Projects_bsr/Android/2015/panda_new/src/main/AndroidManifest.xml:65:13-49
	android:parentActivityName
		ADDED from /Users/user/Documents/Projects_bsr/Android/2015/panda_new/src/main/AndroidManifest.xml:64:13-64
	android:name
		ADDED from /Users/user/Documents/Projects_bsr/Android/2015/panda_new/src/main/AndroidManifest.xml:63:13-54
activity#com.sha.netstager.pandafoods.activity.ConfirmSignUpActivity
ADDED from /Users/user/Documents/Projects_bsr/Android/2015/panda_new/src/main/AndroidManifest.xml:70:9-73:52
	android:screenOrientation
		ADDED from /Users/user/Documents/Projects_bsr/Android/2015/panda_new/src/main/AndroidManifest.xml:73:13-49
	android:label
		ADDED from /Users/user/Documents/Projects_bsr/Android/2015/panda_new/src/main/AndroidManifest.xml:72:13-67
	android:name
		ADDED from /Users/user/Documents/Projects_bsr/Android/2015/panda_new/src/main/AndroidManifest.xml:71:13-59
activity#com.sha.netstager.pandafoods.activity.ProductMainActivity
ADDED from /Users/user/Documents/Projects_bsr/Android/2015/panda_new/src/main/AndroidManifest.xml:74:9-82:20
	android:screenOrientation
		ADDED from /Users/user/Documents/Projects_bsr/Android/2015/panda_new/src/main/AndroidManifest.xml:78:13-49
	android:label
		ADDED from /Users/user/Documents/Projects_bsr/Android/2015/panda_new/src/main/AndroidManifest.xml:76:13-64
	android:parentActivityName
		ADDED from /Users/user/Documents/Projects_bsr/Android/2015/panda_new/src/main/AndroidManifest.xml:77:13-71
	android:name
		ADDED from /Users/user/Documents/Projects_bsr/Android/2015/panda_new/src/main/AndroidManifest.xml:75:13-57
activity#com.sha.netstager.pandafoods.activity.CartShowActivity
ADDED from /Users/user/Documents/Projects_bsr/Android/2015/panda_new/src/main/AndroidManifest.xml:83:9-91:20
	android:screenOrientation
		ADDED from /Users/user/Documents/Projects_bsr/Android/2015/panda_new/src/main/AndroidManifest.xml:87:13-49
	android:label
		ADDED from /Users/user/Documents/Projects_bsr/Android/2015/panda_new/src/main/AndroidManifest.xml:85:13-61
	android:parentActivityName
		ADDED from /Users/user/Documents/Projects_bsr/Android/2015/panda_new/src/main/AndroidManifest.xml:86:13-64
	android:name
		ADDED from /Users/user/Documents/Projects_bsr/Android/2015/panda_new/src/main/AndroidManifest.xml:84:13-54
activity#com.sha.netstager.pandafoods.activity.OrderProductsActivity
ADDED from /Users/user/Documents/Projects_bsr/Android/2015/panda_new/src/main/AndroidManifest.xml:92:9-100:20
	android:screenOrientation
		ADDED from /Users/user/Documents/Projects_bsr/Android/2015/panda_new/src/main/AndroidManifest.xml:96:13-49
	android:label
		ADDED from /Users/user/Documents/Projects_bsr/Android/2015/panda_new/src/main/AndroidManifest.xml:94:13-66
	android:parentActivityName
		ADDED from /Users/user/Documents/Projects_bsr/Android/2015/panda_new/src/main/AndroidManifest.xml:95:13-68
	android:name
		ADDED from /Users/user/Documents/Projects_bsr/Android/2015/panda_new/src/main/AndroidManifest.xml:93:13-59
activity#com.sha.netstager.pandafoods.activity.ProductDetailsActivity
ADDED from /Users/user/Documents/Projects_bsr/Android/2015/panda_new/src/main/AndroidManifest.xml:101:9-108:20
	android:screenOrientation
		ADDED from /Users/user/Documents/Projects_bsr/Android/2015/panda_new/src/main/AndroidManifest.xml:104:13-49
	android:parentActivityName
		ADDED from /Users/user/Documents/Projects_bsr/Android/2015/panda_new/src/main/AndroidManifest.xml:103:13-71
	android:name
		ADDED from /Users/user/Documents/Projects_bsr/Android/2015/panda_new/src/main/AndroidManifest.xml:102:13-60
activity#com.sha.netstager.pandafoods.activity.OrderedProductShowActivity
ADDED from /Users/user/Documents/Projects_bsr/Android/2015/panda_new/src/main/AndroidManifest.xml:109:9-117:20
	android:screenOrientation
		ADDED from /Users/user/Documents/Projects_bsr/Android/2015/panda_new/src/main/AndroidManifest.xml:113:13-49
	android:label
		ADDED from /Users/user/Documents/Projects_bsr/Android/2015/panda_new/src/main/AndroidManifest.xml:111:13-64
	android:parentActivityName
		ADDED from /Users/user/Documents/Projects_bsr/Android/2015/panda_new/src/main/AndroidManifest.xml:112:13-71
	android:name
		ADDED from /Users/user/Documents/Projects_bsr/Android/2015/panda_new/src/main/AndroidManifest.xml:110:13-64
activity#com.sha.netstager.pandafoods.activity.SetCustomerActivity
ADDED from /Users/user/Documents/Projects_bsr/Android/2015/panda_new/src/main/AndroidManifest.xml:118:9-126:20
	android:screenOrientation
		ADDED from /Users/user/Documents/Projects_bsr/Android/2015/panda_new/src/main/AndroidManifest.xml:122:13-49
	android:label
		ADDED from /Users/user/Documents/Projects_bsr/Android/2015/panda_new/src/main/AndroidManifest.xml:120:13-64
	android:parentActivityName
		ADDED from /Users/user/Documents/Projects_bsr/Android/2015/panda_new/src/main/AndroidManifest.xml:121:13-64
	android:name
		ADDED from /Users/user/Documents/Projects_bsr/Android/2015/panda_new/src/main/AndroidManifest.xml:119:13-57
activity#com.sha.netstager.pandafoods.activity.OfferViewActivity
ADDED from /Users/user/Documents/Projects_bsr/Android/2015/panda_new/src/main/AndroidManifest.xml:127:9-135:20
	android:screenOrientation
		ADDED from /Users/user/Documents/Projects_bsr/Android/2015/panda_new/src/main/AndroidManifest.xml:131:13-49
	android:label
		ADDED from /Users/user/Documents/Projects_bsr/Android/2015/panda_new/src/main/AndroidManifest.xml:129:13-62
	android:parentActivityName
		ADDED from /Users/user/Documents/Projects_bsr/Android/2015/panda_new/src/main/AndroidManifest.xml:130:13-64
	android:name
		ADDED from /Users/user/Documents/Projects_bsr/Android/2015/panda_new/src/main/AndroidManifest.xml:128:13-55
activity#com.sha.netstager.pandafoods.activity.SubCatagoryActivity
ADDED from /Users/user/Documents/Projects_bsr/Android/2015/panda_new/src/main/AndroidManifest.xml:136:9-144:20
	android:screenOrientation
		ADDED from /Users/user/Documents/Projects_bsr/Android/2015/panda_new/src/main/AndroidManifest.xml:140:13-49
	android:label
		ADDED from /Users/user/Documents/Projects_bsr/Android/2015/panda_new/src/main/AndroidManifest.xml:138:13-64
	android:parentActivityName
		ADDED from /Users/user/Documents/Projects_bsr/Android/2015/panda_new/src/main/AndroidManifest.xml:139:13-75
	android:name
		ADDED from /Users/user/Documents/Projects_bsr/Android/2015/panda_new/src/main/AndroidManifest.xml:137:13-57
activity#com.sha.netstager.pandafoods.activity.Grid_Home_Activity
ADDED from /Users/user/Documents/Projects_bsr/Android/2015/panda_new/src/main/AndroidManifest.xml:145:9-150:20
	android:screenOrientation
		ADDED from /Users/user/Documents/Projects_bsr/Android/2015/panda_new/src/main/AndroidManifest.xml:149:13-49
	android:label
		ADDED from /Users/user/Documents/Projects_bsr/Android/2015/panda_new/src/main/AndroidManifest.xml:147:13-63
	android:theme
		ADDED from /Users/user/Documents/Projects_bsr/Android/2015/panda_new/src/main/AndroidManifest.xml:148:13-53
	android:name
		ADDED from /Users/user/Documents/Projects_bsr/Android/2015/panda_new/src/main/AndroidManifest.xml:146:13-56
activity#com.sha.netstager.pandafoods.activity.LoginAuthActivity
ADDED from /Users/user/Documents/Projects_bsr/Android/2015/panda_new/src/main/AndroidManifest.xml:151:9-156:20
	android:screenOrientation
		ADDED from /Users/user/Documents/Projects_bsr/Android/2015/panda_new/src/main/AndroidManifest.xml:155:13-49
	android:label
		ADDED from /Users/user/Documents/Projects_bsr/Android/2015/panda_new/src/main/AndroidManifest.xml:153:13-63
	android:theme
		ADDED from /Users/user/Documents/Projects_bsr/Android/2015/panda_new/src/main/AndroidManifest.xml:154:13-53
	android:name
		ADDED from /Users/user/Documents/Projects_bsr/Android/2015/panda_new/src/main/AndroidManifest.xml:152:13-55
service#com.sha.netstager.pandafoods.services.SyncService
ADDED from /Users/user/Documents/Projects_bsr/Android/2015/panda_new/src/main/AndroidManifest.xml:159:9-162:39
	android:enabled
		ADDED from /Users/user/Documents/Projects_bsr/Android/2015/panda_new/src/main/AndroidManifest.xml:161:13-35
	android:exported
		ADDED from /Users/user/Documents/Projects_bsr/Android/2015/panda_new/src/main/AndroidManifest.xml:162:13-36
	android:name
		ADDED from /Users/user/Documents/Projects_bsr/Android/2015/panda_new/src/main/AndroidManifest.xml:160:13-49
service#com.sha.netstager.pandafoods.services.OrderService
ADDED from /Users/user/Documents/Projects_bsr/Android/2015/panda_new/src/main/AndroidManifest.xml:163:9-166:39
	android:enabled
		ADDED from /Users/user/Documents/Projects_bsr/Android/2015/panda_new/src/main/AndroidManifest.xml:165:13-35
	android:exported
		ADDED from /Users/user/Documents/Projects_bsr/Android/2015/panda_new/src/main/AndroidManifest.xml:166:13-36
	android:name
		ADDED from /Users/user/Documents/Projects_bsr/Android/2015/panda_new/src/main/AndroidManifest.xml:164:13-50
service#com.sha.netstager.pandafoods.services.SyncCustomerService
ADDED from /Users/user/Documents/Projects_bsr/Android/2015/panda_new/src/main/AndroidManifest.xml:167:9-170:39
	android:enabled
		ADDED from /Users/user/Documents/Projects_bsr/Android/2015/panda_new/src/main/AndroidManifest.xml:169:13-35
	android:exported
		ADDED from /Users/user/Documents/Projects_bsr/Android/2015/panda_new/src/main/AndroidManifest.xml:170:13-36
	android:name
		ADDED from /Users/user/Documents/Projects_bsr/Android/2015/panda_new/src/main/AndroidManifest.xml:168:13-57
provider#com.sha.netstager.pandafoods.contentProvider.LocalDbProvider
ADDED from /Users/user/Documents/Projects_bsr/Android/2015/panda_new/src/main/AndroidManifest.xml:173:9-177:39
	android:authorities
		ADDED from /Users/user/Documents/Projects_bsr/Android/2015/panda_new/src/main/AndroidManifest.xml:175:13-79
	android:enabled
		ADDED from /Users/user/Documents/Projects_bsr/Android/2015/panda_new/src/main/AndroidManifest.xml:176:13-35
	android:exported
		ADDED from /Users/user/Documents/Projects_bsr/Android/2015/panda_new/src/main/AndroidManifest.xml:177:13-36
	android:name
		ADDED from /Users/user/Documents/Projects_bsr/Android/2015/panda_new/src/main/AndroidManifest.xml:174:13-60
activity#com.sha.netstager.pandafoods.activity.CartActionBar
ADDED from /Users/user/Documents/Projects_bsr/Android/2015/panda_new/src/main/AndroidManifest.xml:179:9-183:20
	android:screenOrientation
		ADDED from /Users/user/Documents/Projects_bsr/Android/2015/panda_new/src/main/AndroidManifest.xml:182:13-49
	android:label
		ADDED from /Users/user/Documents/Projects_bsr/Android/2015/panda_new/src/main/AndroidManifest.xml:181:13-67
	android:name
		ADDED from /Users/user/Documents/Projects_bsr/Android/2015/panda_new/src/main/AndroidManifest.xml:180:13-51
activity#com.sha.netstager.pandafoods.activity.OrderComplteApi
ADDED from /Users/user/Documents/Projects_bsr/Android/2015/panda_new/src/main/AndroidManifest.xml:184:9-188:20
	android:screenOrientation
		ADDED from /Users/user/Documents/Projects_bsr/Android/2015/panda_new/src/main/AndroidManifest.xml:187:13-49
	android:label
		ADDED from /Users/user/Documents/Projects_bsr/Android/2015/panda_new/src/main/AndroidManifest.xml:186:13-69
	android:name
		ADDED from /Users/user/Documents/Projects_bsr/Android/2015/panda_new/src/main/AndroidManifest.xml:185:13-53
uses-sdk
INJECTED from /Users/user/Documents/Projects_bsr/Android/2015/panda_new/src/main/AndroidManifest.xml reason: use-sdk injection requested
MERGED from [com.android.support:appcompat-v7:21.0.3] /Users/user/Documents/Projects_bsr/Android/2015/panda_new/build/intermediates/exploded-aar/com.android.support/appcompat-v7/21.0.3/AndroidManifest.xml:15:5-42
MERGED from [com.android.support:support-v4:21.0.3] /Users/user/Documents/Projects_bsr/Android/2015/panda_new/build/intermediates/exploded-aar/com.android.support/support-v4/21.0.3/AndroidManifest.xml:15:5-42
MERGED from [com.google.android.gms:play-services:6.5.87] /Users/user/Documents/Projects_bsr/Android/2015/panda_new/build/intermediates/exploded-aar/com.google.android.gms/play-services/6.5.87/AndroidManifest.xml:18:5-42
MERGED from [com.android.support:support-v4:21.0.3] /Users/user/Documents/Projects_bsr/Android/2015/panda_new/build/intermediates/exploded-aar/com.android.support/support-v4/21.0.3/AndroidManifest.xml:15:5-42
	android:targetSdkVersion
		INJECTED from /Users/user/Documents/Projects_bsr/Android/2015/panda_new/src/main/AndroidManifest.xml
		INJECTED from /Users/user/Documents/Projects_bsr/Android/2015/panda_new/src/main/AndroidManifest.xml
	android:minSdkVersion
		INJECTED from /Users/user/Documents/Projects_bsr/Android/2015/panda_new/src/main/AndroidManifest.xml
		INJECTED from /Users/user/Documents/Projects_bsr/Android/2015/panda_new/src/main/AndroidManifest.xml
meta-data#com.google.android.gms.version
ADDED from [com.google.android.gms:play-services:6.5.87] /Users/user/Documents/Projects_bsr/Android/2015/panda_new/build/intermediates/exploded-aar/com.google.android.gms/play-services/6.5.87/AndroidManifest.xml:21:9-23:69
	android:value
		ADDED from [com.google.android.gms:play-services:6.5.87] /Users/user/Documents/Projects_bsr/Android/2015/panda_new/build/intermediates/exploded-aar/com.google.android.gms/play-services/6.5.87/AndroidManifest.xml:23:13-66
	android:name
		ADDED from [com.google.android.gms:play-services:6.5.87] /Users/user/Documents/Projects_bsr/Android/2015/panda_new/build/intermediates/exploded-aar/com.google.android.gms/play-services/6.5.87/AndroidManifest.xml:22:13-58
>>>>>>> 4d046923ea9947e78f4418d9bd0392202b30a1cb
